{"_type":"export","__export_format":4,"__export_date":"2020-10-01T15:58:10.654Z","__export_source":"insomnia.desktop.app:v2020.4.1","resources":[{"_id":"req_c6cc2a8ec80a4764a25cb4f70b061667","parentId":"wrk_9d9ed69bb4a5482aa1d0c3b70252b9ab","modified":1601567713355,"created":1601040065576,"url":"https://{{ baseurl  }}/auth/login","name":"1. Realizar Autenticação","description":"As chamadas dos endpoints devem ser autenticadas com o`token` gerado neste endpoint.\n\n<!-- RESPONSE 200 -->\n```\n{\n  \"user\": \"Nome do usuario\",\n  \"token\": \"eyJhbGciOiJIUzI1NiJ9.eyJzdWIiOiJwYXVsb19qQGNpZWUub3JnLmJyIiwidXNlcl90eXBlIjoiQkFDS09GRklDRSIsInJvbGUiOiJBZG1pbiBDSUVFIiwidWlkX3VzZXIiOjExODYyNTg5LCJpYXQiOjE2MDEwNDAxMTd9._uz6I2D5iWrHRnkDtmJJzG26yp-sZy-9TCDXyEwKu7o\",\n  \"status\": \"OK\",\n  \"message\": null,\n  \"permissions\": [{\"perm1\"}]\n}\n```\n<!-- ENDRESPONSE -->\n<!-- RESPONSE 401 -->\n```\n{\n  \"timestamp\": \"2020-09-25T13:24:11.720+0000\",\n  \"status\": 401,\n  \"error\": \"Unauthorized\",\n  \"message\": \"Usuario inválido!\",\n  \"path\": \"/auth/login\"\n}\n```\n<!-- ENDRESPONSE -->\n","method":"POST","body":{"mimeType":"application/json","text":"{\n\t\"username\":\"{{usuario}}\",\n\t\"password\":\"{{senha}}\"\n}"},"parameters":[],"headers":[{"id":"pair_068f9be097734675b44f747a8298e309","name":"content-type","value":"application/json"}],"authentication":{},"metaSortKey":-1601040065576,"isPrivate":false,"settingStoreCookies":true,"settingSendCookies":true,"settingDisableRenderRequestBody":false,"settingEncodeUrl":true,"settingRebuildPath":true,"settingFollowRedirects":"global","_type":"request"},{"_id":"wrk_9d9ed69bb4a5482aa1d0c3b70252b9ab","parentId":null,"modified":1601039822993,"created":1601039822993,"name":"Integração SalesForce","description":"","scope":null,"_type":"workspace"},{"_id":"req_a05d9aa44e5641138632e5d68c5b0136","parentId":"wrk_9d9ed69bb4a5482aa1d0c3b70252b9ab","modified":1601567508818,"created":1601045165837,"url":"https://{{ baseurl  }}/company/contract/search","name":"2. Consultar Contratos Empresas","description":"1. Deve ser utilizado para realizar a consulta dos contratos para o CNPJ / CPF informado.\n\n2. O`companyId` deve ser utilizaco para buscar as informações da empresa no endpoint (**3. Buscar Informações da Empresa**).\n\n3. O `contractId` deve ser utilizado para buscar as informações do contrato de servico.\n\n|Info|Descricao|\n|---|---|\n|`id`|Código do Contrato|\n|`cnpj`|CNPJ da Empresa| \n|`cpf`| CPF do Prof. Liberal|\n|`name`|Nome do Prof. Liberal|\n|`companyName`|Razão Social|\n|`cieeUnitId`|Código Unidade CIEE|\n|`cieeUnitDescription`|Descrição Unidade CIEE| \n|`managementId`|Código da Gerência|\n|`managementDescription`|Descrição da Gerência|\n|`companyType`|Tipo da Empresa|\n|`multiCompanyTypeId`|Código da MultiEmpresa|\n|`multiCompany`|Flag para MultiEmpresa|\n|`serviceType`|Tipo de Contrato Estágio ou Aprendiz|\n|`contractStatus`|Situação do Contrato|\n|`contractSituationStatus`|Status do Contrato|\n|`companyStatus`|Status da Empresa|\n|`contractingMethod`|Tipo de contratação|\n|`companyId`|Código da Empresa|\n|`paymentMethod`|Tipo de pagamento|\n|`paymentMethodCategory`|Categoria de pagamento|\n|`ticketHabilitado`|Controle de ticket|\n```\n{\n      \"id\": 44,\n      \"cnpj\": \"61600839000155\",\n      \"cpf\": null,\n      \"name\": null,\n      \"companyName\": \"TESTE DE CONTRATO DE ESTAGIO\",\n      \"cieeUnitId\": 101,\n      \"cieeUnitDescription\": \"SAO PAULO/SP - UNID. OPERACAO\",\n      \"managementId\": 1,\n      \"managementDescription\": \"Gerencia Regional Grande SP e Litoral\",\n      \"companyType\": null,\n      \"multiCompanyTypeId\": 0,\n      \"multiCompany\": false,\n      \"serviceType\": \"INTERNSHIP\",\n      \"contractStatus\": \"FINALIZED\",\n      \"contractSituationStatus\": \"ACTIVE\",\n      \"companyStatus\": \"ACTIVE\",\n      \"contractingMethod\": null,\n      \"companyId\": 113117,\n      \"paymentMethod\": \"COMPANY\",\n      \"paymentMethodCategory\": null,\n      \"ticketHabilitado\": false\n}\n```\n<!-- RESPONSE 200 -->\n```\n{\n  \"content\": [\n    {\n      \"id\": 44,\n      \"cnpj\": \"61600839000155\",\n      \"cpf\": null,\n      \"name\": null,\n      \"companyName\": \"TESTE DE CONTRATO DE ESTAGIO\",\n      \"cieeUnitId\": 101,\n      \"cieeUnitDescription\": \"SAO PAULO/SP - UNID. OPERACAO\",\n      \"managementId\": 1,\n      \"managementDescription\": \"Gerencia Regional Grande SP e Litoral\",\n      \"companyType\": null,\n      \"multiCompanyTypeId\": 0,\n      \"multiCompany\": false,\n      \"serviceType\": \"INTERNSHIP\",\n      \"contractStatus\": \"FINALIZED\",\n      \"contractSituationStatus\": \"ACTIVE\",\n      \"companyStatus\": \"ACTIVE\",\n      \"contractingMethod\": null,\n      \"companyId\": 113117,\n      \"paymentMethod\": \"COMPANY\",\n      \"paymentMethodCategory\": null,\n      \"ticketHabilitado\": false\n    },\n    {\n      \"id\": 2070,\n      \"cnpj\": \"61600839000155\",\n      \"cpf\": null,\n      \"name\": null,\n      \"companyName\": \"gdfgdgd\",\n      \"cieeUnitId\": 101,\n      \"cieeUnitDescription\": \"SAO PAULO/SP - UNID. OPERACAO\",\n      \"managementId\": 1,\n      \"managementDescription\": \"Gerencia Regional Grande SP e Litoral\",\n      \"companyType\": null,\n      \"multiCompanyTypeId\": 0,\n      \"multiCompany\": false,\n      \"serviceType\": \"APPRENTICESHIP\",\n      \"contractStatus\": \"FINALIZED\",\n      \"contractSituationStatus\": \"BLOCKED\",\n      \"companyStatus\": \"ACTIVE\",\n      \"contractingMethod\": \"TRAINER\",\n      \"companyId\": 113117,\n      \"paymentMethod\": null,\n      \"paymentMethodCategory\": null,\n      \"ticketHabilitado\": false\n    }\n  ],\n  \"pageable\": {\n    \"sort\": {\n      \"unsorted\": true,\n      \"sorted\": false\n    },\n    \"pageNumber\": 0,\n    \"pageSize\": 20,\n    \"offset\": 0,\n    \"paged\": true,\n    \"unpaged\": false\n  },\n  \"last\": false,\n  \"totalElements\": 39,\n  \"totalPages\": 2,\n  \"first\": true,\n  \"sort\": {\n    \"unsorted\": true,\n    \"sorted\": false\n  },\n  \"numberOfElements\": 20,\n  \"size\": 20,\n  \"number\": 0\n}\n```\n<!-- ENDRESPONSE -->\n","method":"GET","body":{"mimeType":"application/json"},"parameters":[{"description":"Situação Contrato","disabled":false,"id":"pair_d47842b894cf45619c87934d19531c0f","name":"contractStatus","value":"FINALIZED"},{"description":"CNPJ ou CPF","disabled":false,"id":"pair_a867d39a80e24d5aa1f9e1bb0096fcda","name":"document","value":"{{ cnpj  }}"},{"description":"Situação Empresa","disabled":false,"id":"pair_14431d0acaec45b093ccd2ef241d2879","name":"companyStatus","value":"ACTIVE"},{"description":"Itens por página","disabled":false,"id":"pair_59ad30b63e554664aae67ea8936b604d","name":"size","value":"20"},{"description":"Número da página","disabled":false,"id":"pair_9f5466175782423484a488ee5be55b26","name":"page","value":"0"}],"headers":[],"authentication":{"token":"{{ token  }}","type":"bearer"},"metaSortKey":-1601040065526,"isPrivate":false,"settingStoreCookies":true,"settingSendCookies":true,"settingDisableRenderRequestBody":true,"settingEncodeUrl":true,"settingRebuildPath":true,"settingFollowRedirects":"global","_type":"request"},{"_id":"req_81e742e92243412cad9944692ef2ba40","parentId":"wrk_9d9ed69bb4a5482aa1d0c3b70252b9ab","modified":1601567725756,"created":1601048966375,"url":"https://{{ baseurl  }}/company/company/{{ companyId  }}","name":"3. Buscar Informações da Empresa","description":"Realizar a consulta utilizando o código da empresa `companyId`.\n\n<!-- RESPONSE 200 -->\n```\n{\n  \"creationDate\": \"2018-09-02T21:52:42-03:00\",\n  \"modifiedDate\": \"2020-09-25T09:07:26.006-03:00\",\n  \"modifiedBy\": \"user@domain\",\n  \"createdBy\": \"61600839-9366Q\",\n  \"id\": 113117,\n  \"companyName\": \"Razao Social da emrpesa consultada\",\n  \"cnpj\": \"61600839000155\",\n  \"tradingName\": \"Nome Fantasia da Empresa consultada\",\n  \"corporateSegment\": \"PRIVATE\",\n  \"state\": null,\n  \"cpf\": null,\n  \"name\": null,\n  \"cei\": null,\n  \"registerValidity\": null,\n  \"councilNumber\": null,\n  \"classCouncil\": null,\n  \"statusRegionalCouncil\": true,\n  \"homePage\": null,\n  \"companyType\": \"LEGAL_ENTITY\",\n  \"statusCompany\": \"ACTIVE\",\n  \"employees\": null,\n  \"serviceContractors\": null,\n  \"activity\": {\n    \"id\": 2,\n    \"creationDate\": \"2018-02-02T10:09:05.038413-02:00\",\n    \"modifiedDate\": \"2018-02-02T15:39:51.646-02:00\",\n    \"modifiedBy\": \"03469327000103\",\n    \"createdBy\": null,\n    \"code\": 1,\n    \"description\": \"AGROPECUARIA\",\n    \"economicSector\": \"FARMING\",\n    \"personType\": \"J\",\n    \"subgroup\": \"AGRICULTURA,PECUARIA E SILVICULTURA\",\n    \"company\": true,\n    \"active\": true\n  },\n  \"chaveObjeto\": 113117,\n  \"tipoEntidade\": \"EMPRESA\",\n  \"codigoObjeto\": \"61600839000155\"\n}\n```\n<!-- ENDRESPONSE -->\n","method":"GET","body":{"mimeType":"application/json"},"parameters":[{"description":"","id":"pair_fdca0f23ea3c4b02b0e9ef609faed14a","name":"","value":""}],"headers":[{"id":"pair_5a143593f1974a1fb0ed850b4a849a49","name":"content-type","value":"application/json"}],"authentication":{"token":"{{ token  }}","type":"bearer"},"metaSortKey":-1601040065476,"isPrivate":false,"settingStoreCookies":true,"settingSendCookies":true,"settingDisableRenderRequestBody":false,"settingEncodeUrl":true,"settingRebuildPath":true,"settingFollowRedirects":"global","_type":"request"},{"_id":"req_3c5e184377c8450fa708fc336701c829","parentId":"wrk_9d9ed69bb4a5482aa1d0c3b70252b9ab","modified":1601567701941,"created":1601566957573,"url":"https://{{ baseurl  }}/company/contract/{{ contractId  }}/contribuicao","name":"4. Consultar Informação Contribuição do Contrato","description":"Realizar a consulta utilizando o código do contrato `contractId`.\n\n<!-- RESPONSE 200 -->\n```\n{\n  \"idConfiguracaoFaturamento\": 3,\n  \"contribuicaoInicial\": null,\n  \"mesBase\": 2,\n  \"valorDeContribuicao\": 10,\n  \"tipoContribuicao\": {\n    \"creationDate\": \"2018-07-24T21:43:46.46849-03:00\",\n    \"modifiedDate\": \"2018-07-24T21:43:46.46849-03:00\",\n    \"modifiedBy\": null,\n    \"createdBy\": null,\n    \"id\": 1,\n    \"description\": \"Fixo\",\n    \"isDefault\": true,\n    \"format\": \"CURRENCY\"\n  },\n  \"valorRepasseEmpresa\": null,\n  \"idIndiceConcessao\": null,\n  \"idIndiceContribuicao\": 2,\n  \"descriptionIndiceContribuicao\": \"IPC\",\n  \"reajusteCiAnual\": false,\n  \"faixas\": []\n}\n```\n<!-- ENDRESPONSE -->\n","method":"GET","body":{"mimeType":"application/json"},"parameters":[{"description":"","id":"pair_fdca0f23ea3c4b02b0e9ef609faed14a","name":"","value":""}],"headers":[{"id":"pair_5a143593f1974a1fb0ed850b4a849a49","name":"content-type","value":"application/json"}],"authentication":{"token":"{{ token  }}","type":"bearer"},"metaSortKey":-1599835877998.5,"isPrivate":false,"settingStoreCookies":true,"settingSendCookies":true,"settingDisableRenderRequestBody":false,"settingEncodeUrl":true,"settingRebuildPath":true,"settingFollowRedirects":"global","_type":"request"},{"_id":"env_5710e425bfd7885d1e0d7e3665dc9940e3394cdd","parentId":"wrk_9d9ed69bb4a5482aa1d0c3b70252b9ab","modified":1601469602004,"created":1601039823100,"name":"Base Environment","data":{},"dataPropertyOrder":{},"color":null,"isPrivate":false,"metaSortKey":1601039823100,"_type":"environment"},{"_id":"jar_5710e425bfd7885d1e0d7e3665dc9940e3394cdd","parentId":"wrk_9d9ed69bb4a5482aa1d0c3b70252b9ab","modified":1601039823102,"created":1601039823102,"name":"Default Jar","cookies":[],"_type":"cookie_jar"},{"_id":"spc_9213ae6ea309480d894e35fdac00758b","parentId":"wrk_9d9ed69bb4a5482aa1d0c3b70252b9ab","modified":1601039823027,"created":1601039823027,"fileName":"Integração SalesForce","contents":"","contentType":"yaml","_type":"api_spec"},{"_id":"env_3a8227200c664113a9a5d7108a127f28","parentId":"env_5710e425bfd7885d1e0d7e3665dc9940e3394cdd","modified":1601567872717,"created":1601039834702,"name":"Homologação","data":{"baseurl":"api.hmg.ciee.org.br","usuario":"usuario","senha":"senha","token":"eyJhbGciOiJIUzI1NiJ9.eyJzdWIiOiJwYXVsb19qQGNpZWUub3JnLmJyIiwidXNlcl90eXBlIjoiQkFDS09GRklDRSIsInJvbGUiOiJBZG1pbiBDSUVFIiwidWlkX3VzZXIiOjExODYyNTg5LCJpYXQiOjE2MDE0Njk2NDN9.PY8zjXHQiot1WNZu4Pxyf1zO8MVurJA-nNJBYCo","cnpj":"61600839000155","companyId":"companyId","contractId":"contractId"},"dataPropertyOrder":{"&":["baseurl","usuario","senha","token","cnpj","companyId","contractId"]},"color":"#7d69cb","isPrivate":false,"metaSortKey":1601039834702,"_type":"environment"}]}